{
	"process_id" : 1636,
	"version" : "2019.3.0a5",
	"app_path" : "C:/Program Files/Unity/Hub/Editor/2019.3.0a5/Editor/Unity.exe",
	"app_contents_path" : "C:/Program Files/Unity/Hub/Editor/2019.3.0a5/Editor/Data"
}