{
	"process_id" : 8092,
	"version" : "2019.1.9f1",
	"app_path" : "C:/Program Files/Unity/Hub/Editor/2019.1.9f1/Editor/Unity.exe",
	"app_contents_path" : "C:/Program Files/Unity/Hub/Editor/2019.1.9f1/Editor/Data"
}